75.83333333333334	SELECT * WHERE { ?var1 a <http://www.wikidata.org/entity/Q5741069> }
359.91666666666663	SELECT * WHERE { ?var1 a <http://www.wikidata.org/entity/Q188451> }
30.91666666666666	SELECT * WHERE { ?var1 a <http://www.wikidata.org/entity/Q482994> }
1870.7499999999998	SELECT * WHERE { ?var1 a <http://www.wikidata.org/entity/Q6256> }
30.666666666666657	SELECT * WHERE { ?var1 a <http://www.wikidata.org/entity/Q838948> }
1.0	SELECT * WHERE { ?var1 <http://www.wikidata.org/prop/direct/P1476> ?var2 ; a <http://www.wikidata.org/entity/Q838948> }
0.15760869565217392	SELECT * WHERE { ?var1 <http://www.wikidata.org/prop/direct/P159> _:b0 ; a <http://www.wikidata.org/entity/Q43229> }
0.39683447749809303	SELECT * WHERE { ?var1 <http://www.wikidata.org/prop/direct/P159> _:b0 ; a <http://www.wikidata.org/entity/Q43229> }
8.25	SELECT * WHERE { ?var1 a <http://www.wikidata.org/entity/Q7366> }
3.0	SELECT * WHERE { ?var1 a <http://www.wikidata.org/entity/Q134556> }
3.0	SELECT * WHERE { _:b0 a <http://www.wikidata.org/entity/Q838948> }
5.0	SELECT * WHERE { ?var1 a <http://www.wikidata.org/entity/Q215627> }
85.20535714285718	SELECT * WHERE { ?var1 a <http://www.wikidata.org/entity/Q215380> }
0.5178571428571429	SELECT * WHERE { ?var1 <http://www.wikidata.org/prop/direct/P856> ?var2 ; a <http://www.wikidata.org/entity/Q215380> }
0.07142857142857141	SELECT * WHERE { ?var1 <http://www.wikidata.org/prop/direct/P434> ?var9 ; a <http://www.wikidata.org/entity/Q215380> }
0.07142857142857141	SELECT * WHERE { ?var1 <http://www.wikidata.org/prop/direct/P856> ?var2 ; <http://www.wikidata.org/prop/direct/P434> ?var9 ; a <http://www.wikidata.org/entity/Q215380> }
3.794642857142857	SELECT * WHERE { ?var1 <http://www.wikidata.org/prop/direct/P434> ?var7 ; a <http://www.wikidata.org/entity/Q215380> }
0.10714285714285714	SELECT * WHERE { ?var1 <http://www.wikidata.org/prop/direct/P856> ?var2 ; <http://www.wikidata.org/prop/direct/P434> ?var7 ; a <http://www.wikidata.org/entity/Q215380> }
102.83333333333333	SELECT * WHERE { ?var2 a <http://www.wikidata.org/entity/Q6256> }
261.892156862745	SELECT * WHERE { ?var3 a <http://www.wikidata.org/entity/Q6256> }
2.333333333333333	SELECT * WHERE { ?var1 a <http://www.wikidata.org/entity/Q2385804> }
4.0	SELECT * WHERE { ?var7 a <http://www.wikidata.org/entity/Q6256> }
1.0	SELECT * WHERE { ?var1 <http://www.wikidata.org/prop/direct/P577> ?var2 ; a <http://www.wikidata.org/entity/Q7366> }
0.5	SELECT * WHERE { ?var1 <http://www.wikidata.org/prop/direct/P577> ?var3 ; a <http://www.wikidata.org/entity/Q7366> }
5.0	SELECT * WHERE { ?var5 a <http://www.wikidata.org/entity/Q188451> }
0.5	SELECT * WHERE { ?var1 <http://www.wikidata.org/prop/direct/P434> ?var3 ; a <http://www.wikidata.org/entity/Q215380> }
4.0	SELECT * WHERE { ?var1 <http://www.wikidata.org/prop/direct/P436> ?var3 ; a <http://www.wikidata.org/entity/Q482994> }
17.0	SELECT * WHERE { ?var1 a <http://www.wikidata.org/entity/Q48277> }
79.75000000000001	SELECT * WHERE { ?var1 a <http://www.wikidata.org/entity/Q43229> }
1.5	SELECT * WHERE { ?var1 a <http://www.wikidata.org/entity/Q483501> }
1.75	SELECT * WHERE { ?var1 a <http://www.wikidata.org/entity/Q386724> }
24.57142857142857	SELECT * WHERE { ?var5 a <http://www.wikidata.org/entity/Q6256> }
6.0	SELECT * WHERE { ?var2 a <http://www.wikidata.org/entity/Q6256> . ?var1 a <http://www.wikidata.org/entity/Q6256> }
209.0	SELECT * WHERE { ?var4 a <http://www.wikidata.org/entity/Q6256> }
1.6666666666666665	SELECT * WHERE { ?var1 <http://www.wikidata.org/prop/direct/P279> ?var2 ; a <http://www.wikidata.org/entity/Q838948> }
0.3333333333333333	SELECT * WHERE { ?var2 a <http://www.wikidata.org/entity/Q43229> }
1.3333333333333333	SELECT * WHERE { ?var2 a <http://www.wikidata.org/entity/Q188451> }
0.25	SELECT * WHERE { ?var1 a <http://www.wikidata.org/entity/Q188451> . ?var3 a <http://www.wikidata.org/entity/Q188451> }
0.5	SELECT * WHERE { ?var2 a <http://www.wikidata.org/entity/Q188451> . ?var1 a <http://www.wikidata.org/entity/Q188451> }
1.0	SELECT * WHERE { ?var3 a <http://www.wikidata.org/entity/Q43229> }
1.0	SELECT * WHERE { ?var1 <http://www.wikidata.org/prop/direct/P509> ?var2 ; a <http://www.wikidata.org/entity/Q483501> }
0.3333333333333333	SELECT * WHERE { ?var2 <http://www.wikidata.org/prop/direct/P509> ?var1 ; a <http://www.wikidata.org/entity/Q483501> }
0.6666666666666666	SELECT * WHERE { ?var2 a <http://www.wikidata.org/entity/Q838948> }
5.0	SELECT * WHERE { ?var9 a <http://www.wikidata.org/entity/Q6256> }
1.0	SELECT * WHERE { ?var8 a <http://www.wikidata.org/entity/Q6256> }
51.0	SELECT * WHERE { ?var6 a <http://www.wikidata.org/entity/Q6256> }
1.0	SELECT * WHERE { ?var1 a <http://www.wikidata.org/entity/Q6256> }
7.0	SELECT * WHERE { ?var1 a <http://www.wikidata.org/entity/Q215380> }
1.0	SELECT * WHERE { ?var1 a <http://www.wikidata.org/entity/Q215380> }
1.0	SELECT * WHERE { ?var1 a <http://www.wikidata.org/entity/Q215380> }
1.0	SELECT * WHERE { ?var1 a <http://www.wikidata.org/entity/Q215380> }
1.0	SELECT * WHERE { ?var1 a <http://www.wikidata.org/entity/Q215380> }
1.0	SELECT * WHERE { ?var1 a <http://www.wikidata.org/entity/Q215380> }
1.0	SELECT * WHERE { ?var1 a <http://www.wikidata.org/entity/Q215380> }
1.125	SELECT * WHERE { ?var1 a <http://www.wikidata.org/entity/Q215380> }
1.25	SELECT * WHERE { ?var1 a <http://www.wikidata.org/entity/Q215380> }
1.0	SELECT * WHERE { ?var1 a <http://www.wikidata.org/entity/Q215380> }
4.0	SELECT * WHERE { ?var1 a <http://www.wikidata.org/entity/Q215380> }
4.0	SELECT * WHERE { ?var1 a <http://www.wikidata.org/entity/Q215380> }
2.0	SELECT * WHERE { ?var1 <http://www.wikidata.org/prop/direct/P856> ?var3 ; a <http://www.wikidata.org/entity/Q215380> }
1.75	SELECT * WHERE { ?var1 a <http://www.wikidata.org/entity/Q215380> }
2.25	SELECT * WHERE { ?var1 a <http://www.wikidata.org/entity/Q215380> }
0.75	SELECT * WHERE { ?var1 <http://www.wikidata.org/prop/direct/P856> ?var3 ; a <http://www.wikidata.org/entity/Q215380> }
1.25	SELECT * WHERE { ?var1 <http://www.wikidata.org/prop/direct/P856> ?var3 ; a <http://www.wikidata.org/entity/Q215380> }
0.5	SELECT * WHERE { ?var1 a <http://www.wikidata.org/entity/Q215380> }
0.5	SELECT * WHERE { ?var1 <http://www.wikidata.org/prop/direct/P856> ?var3 ; a <http://www.wikidata.org/entity/Q215380> }
2.25	SELECT * WHERE { ?var1 a <http://www.wikidata.org/entity/Q215380> }
2.25	SELECT * WHERE { ?var1 <http://www.wikidata.org/prop/direct/P856> ?var3 ; a <http://www.wikidata.org/entity/Q215380> }
0.75	SELECT * WHERE { ?var1 a <http://www.wikidata.org/entity/Q215380> }
0.75	SELECT * WHERE { ?var1 <http://www.wikidata.org/prop/direct/P856> ?var3 ; a <http://www.wikidata.org/entity/Q215380> }
1.0	SELECT * WHERE { ?var5 a <http://www.wikidata.org/entity/Q215380> }
1.0	SELECT * WHERE { ?var5 <http://www.wikidata.org/prop/direct/P856> ?var2 ; a <http://www.wikidata.org/entity/Q215380> }
0.25	SELECT * WHERE { ?var1 a <http://www.wikidata.org/entity/Q215380> }
0.25	SELECT * WHERE { ?var1 <http://www.wikidata.org/prop/direct/P856> ?var3 ; a <http://www.wikidata.org/entity/Q215380> }
0.25	SELECT * WHERE { ?var1 a <http://www.wikidata.org/entity/Q215380> }
0.25	SELECT * WHERE { ?var1 <http://www.wikidata.org/prop/direct/P856> ?var3 ; a <http://www.wikidata.org/entity/Q215380> }
0.25	SELECT * WHERE { ?var1 a <http://www.wikidata.org/entity/Q215380> }
0.25	SELECT * WHERE { ?var1 <http://www.wikidata.org/prop/direct/P856> ?var3 ; a <http://www.wikidata.org/entity/Q215380> }
0.25	SELECT * WHERE { ?var1 a <http://www.wikidata.org/entity/Q215380> }
0.25	SELECT * WHERE { ?var1 <http://www.wikidata.org/prop/direct/P856> ?var3 ; a <http://www.wikidata.org/entity/Q215380> }
0.25	SELECT * WHERE { ?var1 a <http://www.wikidata.org/entity/Q215380> }
0.25	SELECT * WHERE { ?var1 <http://www.wikidata.org/prop/direct/P856> ?var3 ; a <http://www.wikidata.org/entity/Q215380> }
0.25	SELECT * WHERE { ?var1 a <http://www.wikidata.org/entity/Q215380> }
0.25	SELECT * WHERE { ?var1 <http://www.wikidata.org/prop/direct/P856> ?var3 ; a <http://www.wikidata.org/entity/Q215380> }
3.0	SELECT * WHERE { ?var1 a <http://www.wikidata.org/entity/Q215380> }
3.0	SELECT * WHERE { ?var1 <http://www.wikidata.org/prop/direct/P856> ?var3 ; a <http://www.wikidata.org/entity/Q215380> }
0.375	SELECT * WHERE { ?var1 a <http://www.wikidata.org/entity/Q215380> }
0.375	SELECT * WHERE { ?var1 <http://www.wikidata.org/prop/direct/P856> ?var3 ; a <http://www.wikidata.org/entity/Q215380> }
0.375	SELECT * WHERE { ?var1 a <http://www.wikidata.org/entity/Q215380> }
0.375	SELECT * WHERE { ?var1 <http://www.wikidata.org/prop/direct/P856> ?var3 ; a <http://www.wikidata.org/entity/Q215380> }
0.375	SELECT * WHERE { ?var1 a <http://www.wikidata.org/entity/Q215380> }
0.375	SELECT * WHERE { ?var1 <http://www.wikidata.org/prop/direct/P856> ?var3 ; a <http://www.wikidata.org/entity/Q215380> }
0.25	SELECT * WHERE { ?var1 a <http://www.wikidata.org/entity/Q215380> }
0.25	SELECT * WHERE { ?var1 <http://www.wikidata.org/prop/direct/P856> ?var3 ; a <http://www.wikidata.org/entity/Q215380> }
0.375	SELECT * WHERE { ?var1 a <http://www.wikidata.org/entity/Q215380> }
0.375	SELECT * WHERE { ?var1 <http://www.wikidata.org/prop/direct/P856> ?var3 ; a <http://www.wikidata.org/entity/Q215380> }
0.25	SELECT * WHERE { ?var1 a <http://www.wikidata.org/entity/Q215380> }
0.25	SELECT * WHERE { ?var1 <http://www.wikidata.org/prop/direct/P856> ?var3 ; a <http://www.wikidata.org/entity/Q215380> }
0.5	SELECT * WHERE { ?var1 a <http://www.wikidata.org/entity/Q215380> }
0.5	SELECT * WHERE { ?var1 <http://www.wikidata.org/prop/direct/P856> ?var3 ; a <http://www.wikidata.org/entity/Q215380> }
0.25	SELECT * WHERE { ?var1 a <http://www.wikidata.org/entity/Q215380> }
0.25	SELECT * WHERE { ?var1 <http://www.wikidata.org/prop/direct/P856> ?var3 ; a <http://www.wikidata.org/entity/Q215380> }
0.25	SELECT * WHERE { ?var1 a <http://www.wikidata.org/entity/Q215380> }
0.25	SELECT * WHERE { ?var1 <http://www.wikidata.org/prop/direct/P856> ?var3 ; a <http://www.wikidata.org/entity/Q215380> }
0.25	SELECT * WHERE { ?var1 a <http://www.wikidata.org/entity/Q215380> }
0.25	SELECT * WHERE { ?var1 <http://www.wikidata.org/prop/direct/P856> ?var3 ; a <http://www.wikidata.org/entity/Q215380> }
0.25	SELECT * WHERE { ?var1 a <http://www.wikidata.org/entity/Q215380> }
0.25	SELECT * WHERE { ?var1 <http://www.wikidata.org/prop/direct/P856> ?var3 ; a <http://www.wikidata.org/entity/Q215380> }
0.375	SELECT * WHERE { ?var1 a <http://www.wikidata.org/entity/Q215380> }
0.375	SELECT * WHERE { ?var1 <http://www.wikidata.org/prop/direct/P856> ?var3 ; a <http://www.wikidata.org/entity/Q215380> }
0.25	SELECT * WHERE { ?var1 a <http://www.wikidata.org/entity/Q215380> }
0.25	SELECT * WHERE { ?var1 <http://www.wikidata.org/prop/direct/P856> ?var3 ; a <http://www.wikidata.org/entity/Q215380> }
0.625	SELECT * WHERE { ?var1 a <http://www.wikidata.org/entity/Q215380> }
0.625	SELECT * WHERE { ?var1 <http://www.wikidata.org/prop/direct/P856> ?var3 ; a <http://www.wikidata.org/entity/Q215380> }
0.25	SELECT * WHERE { ?var1 a <http://www.wikidata.org/entity/Q215380> }
0.25	SELECT * WHERE { ?var1 <http://www.wikidata.org/prop/direct/P856> ?var3 ; a <http://www.wikidata.org/entity/Q215380> }
0.25	SELECT * WHERE { ?var1 a <http://www.wikidata.org/entity/Q215380> }
0.25	SELECT * WHERE { ?var1 <http://www.wikidata.org/prop/direct/P856> ?var3 ; a <http://www.wikidata.org/entity/Q215380> }
0.25	SELECT * WHERE { ?var1 a <http://www.wikidata.org/entity/Q215380> }
0.25	SELECT * WHERE { ?var1 <http://www.wikidata.org/prop/direct/P856> ?var3 ; a <http://www.wikidata.org/entity/Q215380> }
1.875	SELECT * WHERE { ?var1 a <http://www.wikidata.org/entity/Q215380> }
1.875	SELECT * WHERE { ?var1 <http://www.wikidata.org/prop/direct/P856> ?var3 ; a <http://www.wikidata.org/entity/Q215380> }
2.25	SELECT * WHERE { ?var1 <http://www.wikidata.org/prop/direct/P434> ?var7 ; a <http://www.wikidata.org/entity/Q215380> }
2.25	SELECT * WHERE { ?var1 <http://www.wikidata.org/prop/direct/P856> ?var3 ; <http://www.wikidata.org/prop/direct/P434> ?var7 ; a <http://www.wikidata.org/entity/Q215380> }
1.0	SELECT * WHERE { ?var1 a <http://www.wikidata.org/entity/Q6256> }
0.5	SELECT * WHERE { ?var1 a <http://www.wikidata.org/entity/Q215380> }
0.5	SELECT * WHERE { ?var1 <http://www.wikidata.org/prop/direct/P434> ?var7 ; a <http://www.wikidata.org/entity/Q215380> }
0.5	SELECT * WHERE { ?var1 <http://www.wikidata.org/prop/direct/P856> ?var3 ; a <http://www.wikidata.org/entity/Q215380> }
0.5	SELECT * WHERE { ?var1 <http://www.wikidata.org/prop/direct/P856> ?var3 ; <http://www.wikidata.org/prop/direct/P434> ?var7 ; a <http://www.wikidata.org/entity/Q215380> }
0.125	SELECT * WHERE { ?var1 a <http://www.wikidata.org/entity/Q215380> }
0.125	SELECT * WHERE { ?var1 <http://www.wikidata.org/prop/direct/P434> ?var7 ; a <http://www.wikidata.org/entity/Q215380> }
0.125	SELECT * WHERE { ?var1 <http://www.wikidata.org/prop/direct/P856> ?var3 ; a <http://www.wikidata.org/entity/Q215380> }
0.125	SELECT * WHERE { ?var1 <http://www.wikidata.org/prop/direct/P856> ?var3 ; <http://www.wikidata.org/prop/direct/P434> ?var7 ; a <http://www.wikidata.org/entity/Q215380> }
0.25	SELECT * WHERE { ?var1 a <http://www.wikidata.org/entity/Q215380> }
0.25	SELECT * WHERE { ?var1 <http://www.wikidata.org/prop/direct/P434> ?var7 ; a <http://www.wikidata.org/entity/Q215380> }
0.25	SELECT * WHERE { ?var1 <http://www.wikidata.org/prop/direct/P856> ?var3 ; a <http://www.wikidata.org/entity/Q215380> }
0.25	SELECT * WHERE { ?var1 <http://www.wikidata.org/prop/direct/P856> ?var3 ; <http://www.wikidata.org/prop/direct/P434> ?var7 ; a <http://www.wikidata.org/entity/Q215380> }
0.125	SELECT * WHERE { ?var1 <http://www.wikidata.org/prop/direct/P434> ?var7 ; a <http://www.wikidata.org/entity/Q215380> }
0.125	SELECT * WHERE { ?var1 <http://www.wikidata.org/prop/direct/P856> ?var3 ; <http://www.wikidata.org/prop/direct/P434> ?var7 ; a <http://www.wikidata.org/entity/Q215380> }
0.5	SELECT * WHERE { ?var1 a <http://www.wikidata.org/entity/Q215380> }
0.25	SELECT * WHERE { ?var1 <http://www.wikidata.org/prop/direct/P434> ?var7 ; a <http://www.wikidata.org/entity/Q215380> }
0.5	SELECT * WHERE { ?var1 <http://www.wikidata.org/prop/direct/P856> ?var3 ; a <http://www.wikidata.org/entity/Q215380> }
0.25	SELECT * WHERE { ?var1 <http://www.wikidata.org/prop/direct/P856> ?var3 ; <http://www.wikidata.org/prop/direct/P434> ?var7 ; a <http://www.wikidata.org/entity/Q215380> }
0.125	SELECT * WHERE { ?var1 <http://www.wikidata.org/prop/direct/P434> ?var7 ; a <http://www.wikidata.org/entity/Q215380> }
0.125	SELECT * WHERE { ?var1 <http://www.wikidata.org/prop/direct/P856> ?var3 ; <http://www.wikidata.org/prop/direct/P434> ?var7 ; a <http://www.wikidata.org/entity/Q215380> }
0.125	SELECT * WHERE { ?var1 a <http://www.wikidata.org/entity/Q215380> }
0.125	SELECT * WHERE { ?var1 <http://www.wikidata.org/prop/direct/P434> ?var7 ; a <http://www.wikidata.org/entity/Q215380> }
0.125	SELECT * WHERE { ?var1 <http://www.wikidata.org/prop/direct/P856> ?var3 ; a <http://www.wikidata.org/entity/Q215380> }
0.125	SELECT * WHERE { ?var1 <http://www.wikidata.org/prop/direct/P856> ?var3 ; <http://www.wikidata.org/prop/direct/P434> ?var7 ; a <http://www.wikidata.org/entity/Q215380> }
0.125	SELECT * WHERE { ?var1 a <http://www.wikidata.org/entity/Q215380> }
0.125	SELECT * WHERE { ?var1 <http://www.wikidata.org/prop/direct/P434> ?var7 ; a <http://www.wikidata.org/entity/Q215380> }
0.125	SELECT * WHERE { ?var1 <http://www.wikidata.org/prop/direct/P856> ?var3 ; a <http://www.wikidata.org/entity/Q215380> }
0.125	SELECT * WHERE { ?var1 <http://www.wikidata.org/prop/direct/P856> ?var3 ; <http://www.wikidata.org/prop/direct/P434> ?var7 ; a <http://www.wikidata.org/entity/Q215380> }
0.125	SELECT * WHERE { ?var1 a <http://www.wikidata.org/entity/Q215380> }
0.125	SELECT * WHERE { ?var1 <http://www.wikidata.org/prop/direct/P434> ?var7 ; a <http://www.wikidata.org/entity/Q215380> }
0.125	SELECT * WHERE { ?var1 <http://www.wikidata.org/prop/direct/P856> ?var3 ; a <http://www.wikidata.org/entity/Q215380> }
0.125	SELECT * WHERE { ?var1 <http://www.wikidata.org/prop/direct/P856> ?var3 ; <http://www.wikidata.org/prop/direct/P434> ?var7 ; a <http://www.wikidata.org/entity/Q215380> }
0.375	SELECT * WHERE { ?var1 a <http://www.wikidata.org/entity/Q215380> }
0.375	SELECT * WHERE { ?var1 <http://www.wikidata.org/prop/direct/P434> ?var7 ; a <http://www.wikidata.org/entity/Q215380> }
0.375	SELECT * WHERE { ?var1 <http://www.wikidata.org/prop/direct/P856> ?var3 ; a <http://www.wikidata.org/entity/Q215380> }
0.375	SELECT * WHERE { ?var1 <http://www.wikidata.org/prop/direct/P856> ?var3 ; <http://www.wikidata.org/prop/direct/P434> ?var7 ; a <http://www.wikidata.org/entity/Q215380> }
1.0	SELECT * WHERE { ?var1 a <http://www.wikidata.org/entity/Q215380> }
1.0	SELECT * WHERE { ?var1 <http://www.wikidata.org/prop/direct/P434> ?var7 ; a <http://www.wikidata.org/entity/Q215380> }
1.0	SELECT * WHERE { ?var1 <http://www.wikidata.org/prop/direct/P856> ?var3 ; a <http://www.wikidata.org/entity/Q215380> }
1.0	SELECT * WHERE { ?var1 <http://www.wikidata.org/prop/direct/P856> ?var3 ; <http://www.wikidata.org/prop/direct/P434> ?var7 ; a <http://www.wikidata.org/entity/Q215380> }
0.125	SELECT * WHERE { ?var1 a <http://www.wikidata.org/entity/Q215380> }
0.125	SELECT * WHERE { ?var1 <http://www.wikidata.org/prop/direct/P434> ?var7 ; a <http://www.wikidata.org/entity/Q215380> }
0.125	SELECT * WHERE { ?var1 <http://www.wikidata.org/prop/direct/P856> ?var3 ; a <http://www.wikidata.org/entity/Q215380> }
0.125	SELECT * WHERE { ?var1 <http://www.wikidata.org/prop/direct/P856> ?var3 ; <http://www.wikidata.org/prop/direct/P434> ?var7 ; a <http://www.wikidata.org/entity/Q215380> }
0.5	SELECT * WHERE { ?var1 a <http://www.wikidata.org/entity/Q215380> }
0.5	SELECT * WHERE { ?var1 <http://www.wikidata.org/prop/direct/P434> ?var7 ; a <http://www.wikidata.org/entity/Q215380> }
0.5	SELECT * WHERE { ?var1 <http://www.wikidata.org/prop/direct/P856> ?var3 ; a <http://www.wikidata.org/entity/Q215380> }
0.5	SELECT * WHERE { ?var1 <http://www.wikidata.org/prop/direct/P856> ?var3 ; <http://www.wikidata.org/prop/direct/P434> ?var7 ; a <http://www.wikidata.org/entity/Q215380> }
1.625	SELECT * WHERE { ?var1 a <http://www.wikidata.org/entity/Q215380> }
1.625	SELECT * WHERE { ?var1 <http://www.wikidata.org/prop/direct/P434> ?var7 ; a <http://www.wikidata.org/entity/Q215380> }
1.625	SELECT * WHERE { ?var1 <http://www.wikidata.org/prop/direct/P856> ?var3 ; a <http://www.wikidata.org/entity/Q215380> }
1.625	SELECT * WHERE { ?var1 <http://www.wikidata.org/prop/direct/P856> ?var3 ; <http://www.wikidata.org/prop/direct/P434> ?var7 ; a <http://www.wikidata.org/entity/Q215380> }
0.125	SELECT * WHERE { ?var1 a <http://www.wikidata.org/entity/Q215380> }
0.125	SELECT * WHERE { ?var1 <http://www.wikidata.org/prop/direct/P434> ?var7 ; a <http://www.wikidata.org/entity/Q215380> }
0.125	SELECT * WHERE { ?var1 <http://www.wikidata.org/prop/direct/P856> ?var3 ; a <http://www.wikidata.org/entity/Q215380> }
0.125	SELECT * WHERE { ?var1 <http://www.wikidata.org/prop/direct/P856> ?var3 ; <http://www.wikidata.org/prop/direct/P434> ?var7 ; a <http://www.wikidata.org/entity/Q215380> }
0.5	SELECT * WHERE { ?var1 a <http://www.wikidata.org/entity/Q215380> }
0.5	SELECT * WHERE { ?var1 <http://www.wikidata.org/prop/direct/P434> ?var7 ; a <http://www.wikidata.org/entity/Q215380> }
0.5	SELECT * WHERE { ?var1 <http://www.wikidata.org/prop/direct/P856> ?var3 ; a <http://www.wikidata.org/entity/Q215380> }
0.5	SELECT * WHERE { ?var1 <http://www.wikidata.org/prop/direct/P856> ?var3 ; <http://www.wikidata.org/prop/direct/P434> ?var7 ; a <http://www.wikidata.org/entity/Q215380> }
0.125	SELECT * WHERE { ?var1 a <http://www.wikidata.org/entity/Q215380> }
0.125	SELECT * WHERE { ?var1 <http://www.wikidata.org/prop/direct/P434> ?var7 ; a <http://www.wikidata.org/entity/Q215380> }
0.125	SELECT * WHERE { ?var1 <http://www.wikidata.org/prop/direct/P856> ?var3 ; a <http://www.wikidata.org/entity/Q215380> }
0.125	SELECT * WHERE { ?var1 <http://www.wikidata.org/prop/direct/P856> ?var3 ; <http://www.wikidata.org/prop/direct/P434> ?var7 ; a <http://www.wikidata.org/entity/Q215380> }
0.125	SELECT * WHERE { ?var1 <http://www.wikidata.org/prop/direct/P434> ?var7 ; a <http://www.wikidata.org/entity/Q215380> }
0.125	SELECT * WHERE { ?var1 <http://www.wikidata.org/prop/direct/P856> ?var3 ; a <http://www.wikidata.org/entity/Q215380> }
0.125	SELECT * WHERE { ?var1 <http://www.wikidata.org/prop/direct/P856> ?var3 ; <http://www.wikidata.org/prop/direct/P434> ?var7 ; a <http://www.wikidata.org/entity/Q215380> }
0.25	SELECT * WHERE { ?var1 <http://www.wikidata.org/prop/direct/P434> ?var7 ; a <http://www.wikidata.org/entity/Q215380> }
0.25	SELECT * WHERE { ?var1 <http://www.wikidata.org/prop/direct/P856> ?var3 ; a <http://www.wikidata.org/entity/Q215380> }
0.25	SELECT * WHERE { ?var1 <http://www.wikidata.org/prop/direct/P856> ?var3 ; <http://www.wikidata.org/prop/direct/P434> ?var7 ; a <http://www.wikidata.org/entity/Q215380> }
0.375	SELECT * WHERE { ?var1 a <http://www.wikidata.org/entity/Q215380> }
0.375	SELECT * WHERE { ?var1 <http://www.wikidata.org/prop/direct/P434> ?var7 ; a <http://www.wikidata.org/entity/Q215380> }
0.375	SELECT * WHERE { ?var1 <http://www.wikidata.org/prop/direct/P856> ?var3 ; a <http://www.wikidata.org/entity/Q215380> }
0.375	SELECT * WHERE { ?var1 <http://www.wikidata.org/prop/direct/P856> ?var3 ; <http://www.wikidata.org/prop/direct/P434> ?var7 ; a <http://www.wikidata.org/entity/Q215380> }
0.125	SELECT * WHERE { ?var1 a <http://www.wikidata.org/entity/Q215380> }
0.125	SELECT * WHERE { ?var1 <http://www.wikidata.org/prop/direct/P434> ?var7 ; a <http://www.wikidata.org/entity/Q215380> }
0.125	SELECT * WHERE { ?var1 <http://www.wikidata.org/prop/direct/P856> ?var3 ; a <http://www.wikidata.org/entity/Q215380> }
0.125	SELECT * WHERE { ?var1 <http://www.wikidata.org/prop/direct/P856> ?var3 ; <http://www.wikidata.org/prop/direct/P434> ?var7 ; a <http://www.wikidata.org/entity/Q215380> }
0.25	SELECT * WHERE { ?var1 a <http://www.wikidata.org/entity/Q215380> }
0.25	SELECT * WHERE { ?var1 <http://www.wikidata.org/prop/direct/P434> ?var7 ; a <http://www.wikidata.org/entity/Q215380> }
0.25	SELECT * WHERE { ?var1 <http://www.wikidata.org/prop/direct/P856> ?var3 ; a <http://www.wikidata.org/entity/Q215380> }
0.25	SELECT * WHERE { ?var1 <http://www.wikidata.org/prop/direct/P856> ?var3 ; <http://www.wikidata.org/prop/direct/P434> ?var7 ; a <http://www.wikidata.org/entity/Q215380> }
0.25	SELECT * WHERE { ?var1 a <http://www.wikidata.org/entity/Q215380> }
0.25	SELECT * WHERE { ?var1 <http://www.wikidata.org/prop/direct/P434> ?var7 ; a <http://www.wikidata.org/entity/Q215380> }
0.25	SELECT * WHERE { ?var1 <http://www.wikidata.org/prop/direct/P856> ?var3 ; a <http://www.wikidata.org/entity/Q215380> }
0.25	SELECT * WHERE { ?var1 <http://www.wikidata.org/prop/direct/P856> ?var3 ; <http://www.wikidata.org/prop/direct/P434> ?var7 ; a <http://www.wikidata.org/entity/Q215380> }
0.125	SELECT * WHERE { ?var1 a <http://www.wikidata.org/entity/Q215380> }
0.125	SELECT * WHERE { ?var1 <http://www.wikidata.org/prop/direct/P434> ?var7 ; a <http://www.wikidata.org/entity/Q215380> }
0.125	SELECT * WHERE { ?var1 <http://www.wikidata.org/prop/direct/P856> ?var3 ; a <http://www.wikidata.org/entity/Q215380> }
0.125	SELECT * WHERE { ?var1 <http://www.wikidata.org/prop/direct/P856> ?var3 ; <http://www.wikidata.org/prop/direct/P434> ?var7 ; a <http://www.wikidata.org/entity/Q215380> }
0.25	SELECT * WHERE { ?var1 a <http://www.wikidata.org/entity/Q215380> }
0.25	SELECT * WHERE { ?var1 <http://www.wikidata.org/prop/direct/P434> ?var7 ; a <http://www.wikidata.org/entity/Q215380> }
0.25	SELECT * WHERE { ?var1 <http://www.wikidata.org/prop/direct/P856> ?var3 ; a <http://www.wikidata.org/entity/Q215380> }
0.25	SELECT * WHERE { ?var1 <http://www.wikidata.org/prop/direct/P856> ?var3 ; <http://www.wikidata.org/prop/direct/P434> ?var7 ; a <http://www.wikidata.org/entity/Q215380> }
0.25	SELECT * WHERE { ?var1 a <http://www.wikidata.org/entity/Q215380> }
0.25	SELECT * WHERE { ?var1 <http://www.wikidata.org/prop/direct/P434> ?var7 ; a <http://www.wikidata.org/entity/Q215380> }
0.25	SELECT * WHERE { ?var1 <http://www.wikidata.org/prop/direct/P856> ?var3 ; a <http://www.wikidata.org/entity/Q215380> }
0.25	SELECT * WHERE { ?var1 <http://www.wikidata.org/prop/direct/P856> ?var3 ; <http://www.wikidata.org/prop/direct/P434> ?var7 ; a <http://www.wikidata.org/entity/Q215380> }
0.375	SELECT * WHERE { ?var1 a <http://www.wikidata.org/entity/Q215380> }
0.375	SELECT * WHERE { ?var1 <http://www.wikidata.org/prop/direct/P434> ?var7 ; a <http://www.wikidata.org/entity/Q215380> }
0.375	SELECT * WHERE { ?var1 <http://www.wikidata.org/prop/direct/P856> ?var3 ; a <http://www.wikidata.org/entity/Q215380> }
0.375	SELECT * WHERE { ?var1 <http://www.wikidata.org/prop/direct/P856> ?var3 ; <http://www.wikidata.org/prop/direct/P434> ?var7 ; a <http://www.wikidata.org/entity/Q215380> }
0.125	SELECT * WHERE { ?var1 a <http://www.wikidata.org/entity/Q215380> }
0.125	SELECT * WHERE { ?var1 <http://www.wikidata.org/prop/direct/P434> ?var7 ; a <http://www.wikidata.org/entity/Q215380> }
0.125	SELECT * WHERE { ?var1 <http://www.wikidata.org/prop/direct/P856> ?var3 ; a <http://www.wikidata.org/entity/Q215380> }
0.125	SELECT * WHERE { ?var1 <http://www.wikidata.org/prop/direct/P856> ?var3 ; <http://www.wikidata.org/prop/direct/P434> ?var7 ; a <http://www.wikidata.org/entity/Q215380> }
0.125	SELECT * WHERE { ?var1 a <http://www.wikidata.org/entity/Q215380> }
0.125	SELECT * WHERE { ?var1 <http://www.wikidata.org/prop/direct/P434> ?var7 ; a <http://www.wikidata.org/entity/Q215380> }
0.125	SELECT * WHERE { ?var1 <http://www.wikidata.org/prop/direct/P856> ?var3 ; a <http://www.wikidata.org/entity/Q215380> }
0.125	SELECT * WHERE { ?var1 <http://www.wikidata.org/prop/direct/P856> ?var3 ; <http://www.wikidata.org/prop/direct/P434> ?var7 ; a <http://www.wikidata.org/entity/Q215380> }
0.125	SELECT * WHERE { ?var1 a <http://www.wikidata.org/entity/Q215380> }
0.125	SELECT * WHERE { ?var1 <http://www.wikidata.org/prop/direct/P434> ?var7 ; a <http://www.wikidata.org/entity/Q215380> }
0.125	SELECT * WHERE { ?var1 <http://www.wikidata.org/prop/direct/P856> ?var3 ; a <http://www.wikidata.org/entity/Q215380> }
0.125	SELECT * WHERE { ?var1 <http://www.wikidata.org/prop/direct/P856> ?var3 ; <http://www.wikidata.org/prop/direct/P434> ?var7 ; a <http://www.wikidata.org/entity/Q215380> }
0.125	SELECT * WHERE { ?var1 a <http://www.wikidata.org/entity/Q215380> }
0.125	SELECT * WHERE { ?var1 <http://www.wikidata.org/prop/direct/P434> ?var7 ; a <http://www.wikidata.org/entity/Q215380> }
0.125	SELECT * WHERE { ?var1 <http://www.wikidata.org/prop/direct/P856> ?var3 ; a <http://www.wikidata.org/entity/Q215380> }
0.125	SELECT * WHERE { ?var1 <http://www.wikidata.org/prop/direct/P856> ?var3 ; <http://www.wikidata.org/prop/direct/P434> ?var7 ; a <http://www.wikidata.org/entity/Q215380> }
0.125	SELECT * WHERE { ?var1 a <http://www.wikidata.org/entity/Q215380> }
0.125	SELECT * WHERE { ?var1 <http://www.wikidata.org/prop/direct/P434> ?var7 ; a <http://www.wikidata.org/entity/Q215380> }
0.125	SELECT * WHERE { ?var1 <http://www.wikidata.org/prop/direct/P856> ?var3 ; a <http://www.wikidata.org/entity/Q215380> }
0.125	SELECT * WHERE { ?var1 <http://www.wikidata.org/prop/direct/P856> ?var3 ; <http://www.wikidata.org/prop/direct/P434> ?var7 ; a <http://www.wikidata.org/entity/Q215380> }
0.125	SELECT * WHERE { ?var1 a <http://www.wikidata.org/entity/Q215380> }
0.125	SELECT * WHERE { ?var1 <http://www.wikidata.org/prop/direct/P434> ?var7 ; a <http://www.wikidata.org/entity/Q215380> }
0.125	SELECT * WHERE { ?var1 <http://www.wikidata.org/prop/direct/P856> ?var3 ; a <http://www.wikidata.org/entity/Q215380> }
0.125	SELECT * WHERE { ?var1 <http://www.wikidata.org/prop/direct/P856> ?var3 ; <http://www.wikidata.org/prop/direct/P434> ?var7 ; a <http://www.wikidata.org/entity/Q215380> }
8.0	SELECT * WHERE { ?var2 a <http://www.wikidata.org/entity/Q215380> }
0.125	SELECT * WHERE { ?var1 a <http://www.wikidata.org/entity/Q215380> }
0.125	SELECT * WHERE { ?var1 <http://www.wikidata.org/prop/direct/P434> ?var7 ; a <http://www.wikidata.org/entity/Q215380> }
0.125	SELECT * WHERE { ?var1 <http://www.wikidata.org/prop/direct/P856> ?var3 ; a <http://www.wikidata.org/entity/Q215380> }
0.125	SELECT * WHERE { ?var1 <http://www.wikidata.org/prop/direct/P856> ?var3 ; <http://www.wikidata.org/prop/direct/P434> ?var7 ; a <http://www.wikidata.org/entity/Q215380> }
0.25	SELECT * WHERE { ?var1 a <http://www.wikidata.org/entity/Q215380> }
0.25	SELECT * WHERE { ?var1 <http://www.wikidata.org/prop/direct/P434> ?var7 ; a <http://www.wikidata.org/entity/Q215380> }
0.25	SELECT * WHERE { ?var1 <http://www.wikidata.org/prop/direct/P856> ?var3 ; a <http://www.wikidata.org/entity/Q215380> }
0.25	SELECT * WHERE { ?var1 <http://www.wikidata.org/prop/direct/P856> ?var3 ; <http://www.wikidata.org/prop/direct/P434> ?var7 ; a <http://www.wikidata.org/entity/Q215380> }
0.25	SELECT * WHERE { ?var1 a <http://www.wikidata.org/entity/Q215380> }
0.25	SELECT * WHERE { ?var1 <http://www.wikidata.org/prop/direct/P434> ?var7 ; a <http://www.wikidata.org/entity/Q215380> }
0.25	SELECT * WHERE { ?var1 <http://www.wikidata.org/prop/direct/P856> ?var3 ; a <http://www.wikidata.org/entity/Q215380> }
0.25	SELECT * WHERE { ?var1 <http://www.wikidata.org/prop/direct/P856> ?var3 ; <http://www.wikidata.org/prop/direct/P434> ?var7 ; a <http://www.wikidata.org/entity/Q215380> }
0.5	SELECT * WHERE { ?var1 a <http://www.wikidata.org/entity/Q215380> }
0.5	SELECT * WHERE { ?var1 <http://www.wikidata.org/prop/direct/P434> ?var7 ; a <http://www.wikidata.org/entity/Q215380> }
0.5	SELECT * WHERE { ?var1 <http://www.wikidata.org/prop/direct/P856> ?var3 ; a <http://www.wikidata.org/entity/Q215380> }
0.5	SELECT * WHERE { ?var1 <http://www.wikidata.org/prop/direct/P856> ?var3 ; <http://www.wikidata.org/prop/direct/P434> ?var7 ; a <http://www.wikidata.org/entity/Q215380> }
3.6875	SELECT * WHERE { ?var1 <http://www.wikidata.org/prop/direct/P856> ?var3 ; a <http://www.wikidata.org/entity/Q215380> }
3.6875	SELECT * WHERE { ?var1 <http://www.wikidata.org/prop/direct/P856> ?var3 ; <http://www.wikidata.org/prop/direct/P434> ?var7 ; a <http://www.wikidata.org/entity/Q215380> }
3.0	SELECT * WHERE { ?var3 a <http://www.wikidata.org/entity/Q48277> }
1.0	SELECT * WHERE { ?var5 a <http://www.wikidata.org/entity/Q48277> }
1.625	SELECT * WHERE { ?var1 <http://www.wikidata.org/prop/direct/P434> ?var7 ; a <http://www.wikidata.org/entity/Q215380> }
1.625	SELECT * WHERE { ?var1 <http://www.wikidata.org/prop/direct/P856> ?var3 ; <http://www.wikidata.org/prop/direct/P434> ?var7 ; a <http://www.wikidata.org/entity/Q215380> }
0.125	SELECT * WHERE { ?var1 a <http://www.wikidata.org/entity/Q215380> }
0.125	SELECT * WHERE { ?var1 <http://www.wikidata.org/prop/direct/P434> ?var7 ; a <http://www.wikidata.org/entity/Q215380> }
0.125	SELECT * WHERE { ?var1 <http://www.wikidata.org/prop/direct/P856> ?var3 ; a <http://www.wikidata.org/entity/Q215380> }
0.125	SELECT * WHERE { ?var1 <http://www.wikidata.org/prop/direct/P856> ?var3 ; <http://www.wikidata.org/prop/direct/P434> ?var7 ; a <http://www.wikidata.org/entity/Q215380> }
0.125	SELECT * WHERE { ?var1 a <http://www.wikidata.org/entity/Q215380> }
0.125	SELECT * WHERE { ?var1 <http://www.wikidata.org/prop/direct/P434> ?var7 ; a <http://www.wikidata.org/entity/Q215380> }
0.125	SELECT * WHERE { ?var1 <http://www.wikidata.org/prop/direct/P856> ?var3 ; a <http://www.wikidata.org/entity/Q215380> }
0.125	SELECT * WHERE { ?var1 <http://www.wikidata.org/prop/direct/P856> ?var3 ; <http://www.wikidata.org/prop/direct/P434> ?var7 ; a <http://www.wikidata.org/entity/Q215380> }
0.125	SELECT * WHERE { ?var1 a <http://www.wikidata.org/entity/Q215380> }
0.125	SELECT * WHERE { ?var1 <http://www.wikidata.org/prop/direct/P434> ?var7 ; a <http://www.wikidata.org/entity/Q215380> }
0.125	SELECT * WHERE { ?var1 <http://www.wikidata.org/prop/direct/P856> ?var3 ; a <http://www.wikidata.org/entity/Q215380> }
0.125	SELECT * WHERE { ?var1 <http://www.wikidata.org/prop/direct/P856> ?var3 ; <http://www.wikidata.org/prop/direct/P434> ?var7 ; a <http://www.wikidata.org/entity/Q215380> }
0.125	SELECT * WHERE { ?var1 a <http://www.wikidata.org/entity/Q215380> }
0.125	SELECT * WHERE { ?var1 <http://www.wikidata.org/prop/direct/P434> ?var7 ; a <http://www.wikidata.org/entity/Q215380> }
0.125	SELECT * WHERE { ?var1 <http://www.wikidata.org/prop/direct/P856> ?var3 ; a <http://www.wikidata.org/entity/Q215380> }
0.125	SELECT * WHERE { ?var1 <http://www.wikidata.org/prop/direct/P856> ?var3 ; <http://www.wikidata.org/prop/direct/P434> ?var7 ; a <http://www.wikidata.org/entity/Q215380> }
1.0	SELECT * WHERE { ?var1 a <http://www.wikidata.org/entity/Q215380> }
1.0	SELECT * WHERE { ?var1 <http://www.wikidata.org/prop/direct/P434> ?var7 ; a <http://www.wikidata.org/entity/Q215380> }
1.0	SELECT * WHERE { ?var1 <http://www.wikidata.org/prop/direct/P856> ?var3 ; a <http://www.wikidata.org/entity/Q215380> }
1.0	SELECT * WHERE { ?var1 <http://www.wikidata.org/prop/direct/P856> ?var3 ; <http://www.wikidata.org/prop/direct/P434> ?var7 ; a <http://www.wikidata.org/entity/Q215380> }
0.125	SELECT * WHERE { ?var1 a <http://www.wikidata.org/entity/Q215380> }
0.125	SELECT * WHERE { ?var1 <http://www.wikidata.org/prop/direct/P434> ?var7 ; a <http://www.wikidata.org/entity/Q215380> }
0.125	SELECT * WHERE { ?var1 <http://www.wikidata.org/prop/direct/P856> ?var3 ; a <http://www.wikidata.org/entity/Q215380> }
0.125	SELECT * WHERE { ?var1 <http://www.wikidata.org/prop/direct/P856> ?var3 ; <http://www.wikidata.org/prop/direct/P434> ?var7 ; a <http://www.wikidata.org/entity/Q215380> }
0.125	SELECT * WHERE { ?var1 a <http://www.wikidata.org/entity/Q215380> }
0.125	SELECT * WHERE { ?var1 <http://www.wikidata.org/prop/direct/P434> ?var7 ; a <http://www.wikidata.org/entity/Q215380> }
0.125	SELECT * WHERE { ?var1 <http://www.wikidata.org/prop/direct/P856> ?var3 ; a <http://www.wikidata.org/entity/Q215380> }
0.125	SELECT * WHERE { ?var1 <http://www.wikidata.org/prop/direct/P856> ?var3 ; <http://www.wikidata.org/prop/direct/P434> ?var7 ; a <http://www.wikidata.org/entity/Q215380> }
0.125	SELECT * WHERE { ?var1 a <http://www.wikidata.org/entity/Q215380> }
0.125	SELECT * WHERE { ?var1 <http://www.wikidata.org/prop/direct/P434> ?var7 ; a <http://www.wikidata.org/entity/Q215380> }
0.125	SELECT * WHERE { ?var1 <http://www.wikidata.org/prop/direct/P856> ?var3 ; a <http://www.wikidata.org/entity/Q215380> }
0.125	SELECT * WHERE { ?var1 <http://www.wikidata.org/prop/direct/P856> ?var3 ; <http://www.wikidata.org/prop/direct/P434> ?var7 ; a <http://www.wikidata.org/entity/Q215380> }
0.125	SELECT * WHERE { ?var1 a <http://www.wikidata.org/entity/Q215380> }
0.125	SELECT * WHERE { ?var1 <http://www.wikidata.org/prop/direct/P434> ?var7 ; a <http://www.wikidata.org/entity/Q215380> }
0.125	SELECT * WHERE { ?var1 <http://www.wikidata.org/prop/direct/P856> ?var3 ; a <http://www.wikidata.org/entity/Q215380> }
0.125	SELECT * WHERE { ?var1 <http://www.wikidata.org/prop/direct/P856> ?var3 ; <http://www.wikidata.org/prop/direct/P434> ?var7 ; a <http://www.wikidata.org/entity/Q215380> }
0.125	SELECT * WHERE { ?var1 a <http://www.wikidata.org/entity/Q215380> }
0.125	SELECT * WHERE { ?var1 <http://www.wikidata.org/prop/direct/P434> ?var7 ; a <http://www.wikidata.org/entity/Q215380> }
0.125	SELECT * WHERE { ?var1 <http://www.wikidata.org/prop/direct/P856> ?var3 ; a <http://www.wikidata.org/entity/Q215380> }
0.125	SELECT * WHERE { ?var1 <http://www.wikidata.org/prop/direct/P856> ?var3 ; <http://www.wikidata.org/prop/direct/P434> ?var7 ; a <http://www.wikidata.org/entity/Q215380> }
0.125	SELECT * WHERE { ?var1 a <http://www.wikidata.org/entity/Q215380> }
0.125	SELECT * WHERE { ?var1 <http://www.wikidata.org/prop/direct/P434> ?var7 ; a <http://www.wikidata.org/entity/Q215380> }
0.125	SELECT * WHERE { ?var1 <http://www.wikidata.org/prop/direct/P856> ?var3 ; a <http://www.wikidata.org/entity/Q215380> }
0.125	SELECT * WHERE { ?var1 <http://www.wikidata.org/prop/direct/P856> ?var3 ; <http://www.wikidata.org/prop/direct/P434> ?var7 ; a <http://www.wikidata.org/entity/Q215380> }
0.125	SELECT * WHERE { ?var1 a <http://www.wikidata.org/entity/Q215380> }
0.125	SELECT * WHERE { ?var1 <http://www.wikidata.org/prop/direct/P434> ?var7 ; a <http://www.wikidata.org/entity/Q215380> }
0.125	SELECT * WHERE { ?var1 <http://www.wikidata.org/prop/direct/P856> ?var3 ; a <http://www.wikidata.org/entity/Q215380> }
0.125	SELECT * WHERE { ?var1 <http://www.wikidata.org/prop/direct/P856> ?var3 ; <http://www.wikidata.org/prop/direct/P434> ?var7 ; a <http://www.wikidata.org/entity/Q215380> }
0.125	SELECT * WHERE { ?var1 a <http://www.wikidata.org/entity/Q215380> }
0.125	SELECT * WHERE { ?var1 <http://www.wikidata.org/prop/direct/P434> ?var7 ; a <http://www.wikidata.org/entity/Q215380> }
0.125	SELECT * WHERE { ?var1 <http://www.wikidata.org/prop/direct/P856> ?var3 ; a <http://www.wikidata.org/entity/Q215380> }
0.125	SELECT * WHERE { ?var1 <http://www.wikidata.org/prop/direct/P856> ?var3 ; <http://www.wikidata.org/prop/direct/P434> ?var7 ; a <http://www.wikidata.org/entity/Q215380> }
0.5	SELECT * WHERE { ?var1 a <http://www.wikidata.org/entity/Q215380> }
0.5	SELECT * WHERE { ?var1 <http://www.wikidata.org/prop/direct/P434> ?var7 ; a <http://www.wikidata.org/entity/Q215380> }
0.5	SELECT * WHERE { ?var1 <http://www.wikidata.org/prop/direct/P856> ?var3 ; a <http://www.wikidata.org/entity/Q215380> }
0.5	SELECT * WHERE { ?var1 <http://www.wikidata.org/prop/direct/P856> ?var3 ; <http://www.wikidata.org/prop/direct/P434> ?var7 ; a <http://www.wikidata.org/entity/Q215380> }
0.375	SELECT * WHERE { ?var1 a <http://www.wikidata.org/entity/Q215380> }
0.375	SELECT * WHERE { ?var1 <http://www.wikidata.org/prop/direct/P434> ?var7 ; a <http://www.wikidata.org/entity/Q215380> }
0.375	SELECT * WHERE { ?var1 <http://www.wikidata.org/prop/direct/P856> ?var3 ; a <http://www.wikidata.org/entity/Q215380> }
0.375	SELECT * WHERE { ?var1 <http://www.wikidata.org/prop/direct/P856> ?var3 ; <http://www.wikidata.org/prop/direct/P434> ?var7 ; a <http://www.wikidata.org/entity/Q215380> }
0.125	SELECT * WHERE { ?var1 a <http://www.wikidata.org/entity/Q215380> }
0.125	SELECT * WHERE { ?var1 <http://www.wikidata.org/prop/direct/P434> ?var7 ; a <http://www.wikidata.org/entity/Q215380> }
0.125	SELECT * WHERE { ?var1 <http://www.wikidata.org/prop/direct/P856> ?var3 ; a <http://www.wikidata.org/entity/Q215380> }
0.125	SELECT * WHERE { ?var1 <http://www.wikidata.org/prop/direct/P856> ?var3 ; <http://www.wikidata.org/prop/direct/P434> ?var7 ; a <http://www.wikidata.org/entity/Q215380> }
0.125	SELECT * WHERE { ?var1 a <http://www.wikidata.org/entity/Q215380> }
0.125	SELECT * WHERE { ?var1 <http://www.wikidata.org/prop/direct/P434> ?var7 ; a <http://www.wikidata.org/entity/Q215380> }
0.125	SELECT * WHERE { ?var1 <http://www.wikidata.org/prop/direct/P856> ?var3 ; a <http://www.wikidata.org/entity/Q215380> }
0.125	SELECT * WHERE { ?var1 <http://www.wikidata.org/prop/direct/P856> ?var3 ; <http://www.wikidata.org/prop/direct/P434> ?var7 ; a <http://www.wikidata.org/entity/Q215380> }
0.125	SELECT * WHERE { ?var1 a <http://www.wikidata.org/entity/Q215380> }
0.125	SELECT * WHERE { ?var1 <http://www.wikidata.org/prop/direct/P434> ?var7 ; a <http://www.wikidata.org/entity/Q215380> }
0.125	SELECT * WHERE { ?var1 <http://www.wikidata.org/prop/direct/P856> ?var3 ; a <http://www.wikidata.org/entity/Q215380> }
0.125	SELECT * WHERE { ?var1 <http://www.wikidata.org/prop/direct/P856> ?var3 ; <http://www.wikidata.org/prop/direct/P434> ?var7 ; a <http://www.wikidata.org/entity/Q215380> }
0.125	SELECT * WHERE { ?var1 a <http://www.wikidata.org/entity/Q215380> }
0.125	SELECT * WHERE { ?var1 <http://www.wikidata.org/prop/direct/P434> ?var7 ; a <http://www.wikidata.org/entity/Q215380> }
0.125	SELECT * WHERE { ?var1 <http://www.wikidata.org/prop/direct/P856> ?var3 ; a <http://www.wikidata.org/entity/Q215380> }
0.125	SELECT * WHERE { ?var1 <http://www.wikidata.org/prop/direct/P856> ?var3 ; <http://www.wikidata.org/prop/direct/P434> ?var7 ; a <http://www.wikidata.org/entity/Q215380> }
0.125	SELECT * WHERE { ?var1 a <http://www.wikidata.org/entity/Q215380> }
0.125	SELECT * WHERE { ?var1 <http://www.wikidata.org/prop/direct/P434> ?var7 ; a <http://www.wikidata.org/entity/Q215380> }
0.125	SELECT * WHERE { ?var1 <http://www.wikidata.org/prop/direct/P856> ?var3 ; a <http://www.wikidata.org/entity/Q215380> }
0.125	SELECT * WHERE { ?var1 <http://www.wikidata.org/prop/direct/P856> ?var3 ; <http://www.wikidata.org/prop/direct/P434> ?var7 ; a <http://www.wikidata.org/entity/Q215380> }
0.125	SELECT * WHERE { ?var1 a <http://www.wikidata.org/entity/Q215380> }
0.125	SELECT * WHERE { ?var1 <http://www.wikidata.org/prop/direct/P434> ?var7 ; a <http://www.wikidata.org/entity/Q215380> }
0.125	SELECT * WHERE { ?var1 <http://www.wikidata.org/prop/direct/P856> ?var3 ; a <http://www.wikidata.org/entity/Q215380> }
0.125	SELECT * WHERE { ?var1 <http://www.wikidata.org/prop/direct/P856> ?var3 ; <http://www.wikidata.org/prop/direct/P434> ?var7 ; a <http://www.wikidata.org/entity/Q215380> }
0.125	SELECT * WHERE { ?var1 a <http://www.wikidata.org/entity/Q215380> }
0.125	SELECT * WHERE { ?var1 <http://www.wikidata.org/prop/direct/P434> ?var7 ; a <http://www.wikidata.org/entity/Q215380> }
0.125	SELECT * WHERE { ?var1 <http://www.wikidata.org/prop/direct/P856> ?var3 ; a <http://www.wikidata.org/entity/Q215380> }
0.125	SELECT * WHERE { ?var1 <http://www.wikidata.org/prop/direct/P856> ?var3 ; <http://www.wikidata.org/prop/direct/P434> ?var7 ; a <http://www.wikidata.org/entity/Q215380> }
0.375	SELECT * WHERE { ?var1 a <http://www.wikidata.org/entity/Q215380> }
0.375	SELECT * WHERE { ?var1 <http://www.wikidata.org/prop/direct/P434> ?var7 ; a <http://www.wikidata.org/entity/Q215380> }
0.375	SELECT * WHERE { ?var1 <http://www.wikidata.org/prop/direct/P856> ?var3 ; a <http://www.wikidata.org/entity/Q215380> }
0.375	SELECT * WHERE { ?var1 <http://www.wikidata.org/prop/direct/P856> ?var3 ; <http://www.wikidata.org/prop/direct/P434> ?var7 ; a <http://www.wikidata.org/entity/Q215380> }
0.375	SELECT * WHERE { ?var1 <http://www.wikidata.org/prop/direct/P434> ?var7 ; a <http://www.wikidata.org/entity/Q215380> }
0.375	SELECT * WHERE { ?var1 <http://www.wikidata.org/prop/direct/P856> ?var3 ; <http://www.wikidata.org/prop/direct/P434> ?var7 ; a <http://www.wikidata.org/entity/Q215380> }
0.125	SELECT * WHERE { ?var1 a <http://www.wikidata.org/entity/Q215380> }
0.125	SELECT * WHERE { ?var1 <http://www.wikidata.org/prop/direct/P434> ?var7 ; a <http://www.wikidata.org/entity/Q215380> }
0.125	SELECT * WHERE { ?var1 <http://www.wikidata.org/prop/direct/P856> ?var3 ; a <http://www.wikidata.org/entity/Q215380> }
0.125	SELECT * WHERE { ?var1 <http://www.wikidata.org/prop/direct/P856> ?var3 ; <http://www.wikidata.org/prop/direct/P434> ?var7 ; a <http://www.wikidata.org/entity/Q215380> }
0.25	SELECT * WHERE { ?var1 a <http://www.wikidata.org/entity/Q215380> }
0.25	SELECT * WHERE { ?var1 <http://www.wikidata.org/prop/direct/P434> ?var7 ; a <http://www.wikidata.org/entity/Q215380> }
0.25	SELECT * WHERE { ?var1 <http://www.wikidata.org/prop/direct/P856> ?var3 ; a <http://www.wikidata.org/entity/Q215380> }
0.25	SELECT * WHERE { ?var1 <http://www.wikidata.org/prop/direct/P856> ?var3 ; <http://www.wikidata.org/prop/direct/P434> ?var7 ; a <http://www.wikidata.org/entity/Q215380> }
0.25	SELECT * WHERE { ?var1 a <http://www.wikidata.org/entity/Q215380> }
0.25	SELECT * WHERE { ?var1 <http://www.wikidata.org/prop/direct/P434> ?var7 ; a <http://www.wikidata.org/entity/Q215380> }
0.25	SELECT * WHERE { ?var1 <http://www.wikidata.org/prop/direct/P856> ?var3 ; a <http://www.wikidata.org/entity/Q215380> }
0.25	SELECT * WHERE { ?var1 <http://www.wikidata.org/prop/direct/P856> ?var3 ; <http://www.wikidata.org/prop/direct/P434> ?var7 ; a <http://www.wikidata.org/entity/Q215380> }
0.125	SELECT * WHERE { ?var1 a <http://www.wikidata.org/entity/Q215380> }
0.125	SELECT * WHERE { ?var1 <http://www.wikidata.org/prop/direct/P434> ?var7 ; a <http://www.wikidata.org/entity/Q215380> }
0.125	SELECT * WHERE { ?var1 <http://www.wikidata.org/prop/direct/P856> ?var3 ; a <http://www.wikidata.org/entity/Q215380> }
0.125	SELECT * WHERE { ?var1 <http://www.wikidata.org/prop/direct/P856> ?var3 ; <http://www.wikidata.org/prop/direct/P434> ?var7 ; a <http://www.wikidata.org/entity/Q215380> }
0.125	SELECT * WHERE { ?var1 a <http://www.wikidata.org/entity/Q215380> }
0.125	SELECT * WHERE { ?var1 <http://www.wikidata.org/prop/direct/P434> ?var7 ; a <http://www.wikidata.org/entity/Q215380> }
0.125	SELECT * WHERE { ?var1 <http://www.wikidata.org/prop/direct/P856> ?var3 ; a <http://www.wikidata.org/entity/Q215380> }
0.125	SELECT * WHERE { ?var1 <http://www.wikidata.org/prop/direct/P856> ?var3 ; <http://www.wikidata.org/prop/direct/P434> ?var7 ; a <http://www.wikidata.org/entity/Q215380> }
0.25	SELECT * WHERE { ?var1 a <http://www.wikidata.org/entity/Q215380> }
0.25	SELECT * WHERE { ?var1 <http://www.wikidata.org/prop/direct/P434> ?var7 ; a <http://www.wikidata.org/entity/Q215380> }
0.25	SELECT * WHERE { ?var1 <http://www.wikidata.org/prop/direct/P856> ?var3 ; a <http://www.wikidata.org/entity/Q215380> }
0.25	SELECT * WHERE { ?var1 <http://www.wikidata.org/prop/direct/P856> ?var3 ; <http://www.wikidata.org/prop/direct/P434> ?var7 ; a <http://www.wikidata.org/entity/Q215380> }
0.125	SELECT * WHERE { ?var1 <http://www.wikidata.org/prop/direct/P434> ?var7 ; a <http://www.wikidata.org/entity/Q215380> }
0.125	SELECT * WHERE { ?var1 <http://www.wikidata.org/prop/direct/P856> ?var3 ; <http://www.wikidata.org/prop/direct/P434> ?var7 ; a <http://www.wikidata.org/entity/Q215380> }
0.125	SELECT * WHERE { ?var1 <http://www.wikidata.org/prop/direct/P434> ?var7 ; a <http://www.wikidata.org/entity/Q215380> }
0.125	SELECT * WHERE { ?var1 <http://www.wikidata.org/prop/direct/P856> ?var3 ; <http://www.wikidata.org/prop/direct/P434> ?var7 ; a <http://www.wikidata.org/entity/Q215380> }
0.25	SELECT * WHERE { ?var1 a <http://www.wikidata.org/entity/Q215380> }
0.25	SELECT * WHERE { ?var1 <http://www.wikidata.org/prop/direct/P434> ?var7 ; a <http://www.wikidata.org/entity/Q215380> }
0.25	SELECT * WHERE { ?var1 <http://www.wikidata.org/prop/direct/P856> ?var3 ; a <http://www.wikidata.org/entity/Q215380> }
0.25	SELECT * WHERE { ?var1 <http://www.wikidata.org/prop/direct/P856> ?var3 ; <http://www.wikidata.org/prop/direct/P434> ?var7 ; a <http://www.wikidata.org/entity/Q215380> }
0.125	SELECT * WHERE { ?var1 a <http://www.wikidata.org/entity/Q215380> }
0.125	SELECT * WHERE { ?var1 <http://www.wikidata.org/prop/direct/P434> ?var7 ; a <http://www.wikidata.org/entity/Q215380> }
0.125	SELECT * WHERE { ?var1 <http://www.wikidata.org/prop/direct/P856> ?var3 ; a <http://www.wikidata.org/entity/Q215380> }
0.125	SELECT * WHERE { ?var1 <http://www.wikidata.org/prop/direct/P856> ?var3 ; <http://www.wikidata.org/prop/direct/P434> ?var7 ; a <http://www.wikidata.org/entity/Q215380> }
0.125	SELECT * WHERE { ?var1 a <http://www.wikidata.org/entity/Q215380> }
0.125	SELECT * WHERE { ?var1 <http://www.wikidata.org/prop/direct/P434> ?var7 ; a <http://www.wikidata.org/entity/Q215380> }
0.125	SELECT * WHERE { ?var1 <http://www.wikidata.org/prop/direct/P856> ?var3 ; a <http://www.wikidata.org/entity/Q215380> }
0.125	SELECT * WHERE { ?var1 <http://www.wikidata.org/prop/direct/P856> ?var3 ; <http://www.wikidata.org/prop/direct/P434> ?var7 ; a <http://www.wikidata.org/entity/Q215380> }
0.125	SELECT * WHERE { ?var1 a <http://www.wikidata.org/entity/Q215380> }
0.125	SELECT * WHERE { ?var1 <http://www.wikidata.org/prop/direct/P434> ?var7 ; a <http://www.wikidata.org/entity/Q215380> }
0.125	SELECT * WHERE { ?var1 <http://www.wikidata.org/prop/direct/P856> ?var3 ; a <http://www.wikidata.org/entity/Q215380> }
0.125	SELECT * WHERE { ?var1 <http://www.wikidata.org/prop/direct/P856> ?var3 ; <http://www.wikidata.org/prop/direct/P434> ?var7 ; a <http://www.wikidata.org/entity/Q215380> }
0.125	SELECT * WHERE { ?var1 a <http://www.wikidata.org/entity/Q215380> }
0.125	SELECT * WHERE { ?var1 <http://www.wikidata.org/prop/direct/P434> ?var7 ; a <http://www.wikidata.org/entity/Q215380> }
0.125	SELECT * WHERE { ?var1 <http://www.wikidata.org/prop/direct/P856> ?var3 ; a <http://www.wikidata.org/entity/Q215380> }
0.125	SELECT * WHERE { ?var1 <http://www.wikidata.org/prop/direct/P856> ?var3 ; <http://www.wikidata.org/prop/direct/P434> ?var7 ; a <http://www.wikidata.org/entity/Q215380> }
0.125	SELECT * WHERE { ?var1 a <http://www.wikidata.org/entity/Q215380> }
0.125	SELECT * WHERE { ?var1 <http://www.wikidata.org/prop/direct/P434> ?var7 ; a <http://www.wikidata.org/entity/Q215380> }
0.125	SELECT * WHERE { ?var1 <http://www.wikidata.org/prop/direct/P856> ?var3 ; a <http://www.wikidata.org/entity/Q215380> }
0.125	SELECT * WHERE { ?var1 <http://www.wikidata.org/prop/direct/P856> ?var3 ; <http://www.wikidata.org/prop/direct/P434> ?var7 ; a <http://www.wikidata.org/entity/Q215380> }
0.125	SELECT * WHERE { ?var1 a <http://www.wikidata.org/entity/Q215380> }
0.125	SELECT * WHERE { ?var1 <http://www.wikidata.org/prop/direct/P434> ?var7 ; a <http://www.wikidata.org/entity/Q215380> }
0.125	SELECT * WHERE { ?var1 <http://www.wikidata.org/prop/direct/P856> ?var3 ; a <http://www.wikidata.org/entity/Q215380> }
0.125	SELECT * WHERE { ?var1 <http://www.wikidata.org/prop/direct/P856> ?var3 ; <http://www.wikidata.org/prop/direct/P434> ?var7 ; a <http://www.wikidata.org/entity/Q215380> }
0.125	SELECT * WHERE { ?var1 a <http://www.wikidata.org/entity/Q215380> }
0.125	SELECT * WHERE { ?var1 <http://www.wikidata.org/prop/direct/P434> ?var7 ; a <http://www.wikidata.org/entity/Q215380> }
0.125	SELECT * WHERE { ?var1 <http://www.wikidata.org/prop/direct/P856> ?var3 ; a <http://www.wikidata.org/entity/Q215380> }
0.125	SELECT * WHERE { ?var1 <http://www.wikidata.org/prop/direct/P856> ?var3 ; <http://www.wikidata.org/prop/direct/P434> ?var7 ; a <http://www.wikidata.org/entity/Q215380> }
0.125	SELECT * WHERE { ?var1 a <http://www.wikidata.org/entity/Q215380> }
0.125	SELECT * WHERE { ?var1 <http://www.wikidata.org/prop/direct/P434> ?var7 ; a <http://www.wikidata.org/entity/Q215380> }
0.125	SELECT * WHERE { ?var1 <http://www.wikidata.org/prop/direct/P856> ?var3 ; a <http://www.wikidata.org/entity/Q215380> }
0.125	SELECT * WHERE { ?var1 <http://www.wikidata.org/prop/direct/P856> ?var3 ; <http://www.wikidata.org/prop/direct/P434> ?var7 ; a <http://www.wikidata.org/entity/Q215380> }
0.125	SELECT * WHERE { ?var1 a <http://www.wikidata.org/entity/Q215380> }
0.125	SELECT * WHERE { ?var1 <http://www.wikidata.org/prop/direct/P434> ?var7 ; a <http://www.wikidata.org/entity/Q215380> }
0.125	SELECT * WHERE { ?var1 <http://www.wikidata.org/prop/direct/P856> ?var3 ; a <http://www.wikidata.org/entity/Q215380> }
0.125	SELECT * WHERE { ?var1 <http://www.wikidata.org/prop/direct/P856> ?var3 ; <http://www.wikidata.org/prop/direct/P434> ?var7 ; a <http://www.wikidata.org/entity/Q215380> }
0.375	SELECT * WHERE { ?var1 a <http://www.wikidata.org/entity/Q215380> }
0.375	SELECT * WHERE { ?var1 <http://www.wikidata.org/prop/direct/P434> ?var7 ; a <http://www.wikidata.org/entity/Q215380> }
0.375	SELECT * WHERE { ?var1 <http://www.wikidata.org/prop/direct/P856> ?var3 ; a <http://www.wikidata.org/entity/Q215380> }
0.375	SELECT * WHERE { ?var1 <http://www.wikidata.org/prop/direct/P856> ?var3 ; <http://www.wikidata.org/prop/direct/P434> ?var7 ; a <http://www.wikidata.org/entity/Q215380> }
0.125	SELECT * WHERE { ?var1 a <http://www.wikidata.org/entity/Q215380> }
0.125	SELECT * WHERE { ?var1 <http://www.wikidata.org/prop/direct/P434> ?var7 ; a <http://www.wikidata.org/entity/Q215380> }
0.125	SELECT * WHERE { ?var1 <http://www.wikidata.org/prop/direct/P856> ?var3 ; a <http://www.wikidata.org/entity/Q215380> }
0.125	SELECT * WHERE { ?var1 <http://www.wikidata.org/prop/direct/P856> ?var3 ; <http://www.wikidata.org/prop/direct/P434> ?var7 ; a <http://www.wikidata.org/entity/Q215380> }
0.125	SELECT * WHERE { ?var1 a <http://www.wikidata.org/entity/Q215380> }
0.125	SELECT * WHERE { ?var1 <http://www.wikidata.org/prop/direct/P434> ?var7 ; a <http://www.wikidata.org/entity/Q215380> }
0.125	SELECT * WHERE { ?var1 <http://www.wikidata.org/prop/direct/P856> ?var3 ; a <http://www.wikidata.org/entity/Q215380> }
0.125	SELECT * WHERE { ?var1 <http://www.wikidata.org/prop/direct/P856> ?var3 ; <http://www.wikidata.org/prop/direct/P434> ?var7 ; a <http://www.wikidata.org/entity/Q215380> }
0.125	SELECT * WHERE { ?var1 a <http://www.wikidata.org/entity/Q215380> }
0.125	SELECT * WHERE { ?var1 <http://www.wikidata.org/prop/direct/P434> ?var7 ; a <http://www.wikidata.org/entity/Q215380> }
0.125	SELECT * WHERE { ?var1 <http://www.wikidata.org/prop/direct/P856> ?var3 ; a <http://www.wikidata.org/entity/Q215380> }
0.125	SELECT * WHERE { ?var1 <http://www.wikidata.org/prop/direct/P856> ?var3 ; <http://www.wikidata.org/prop/direct/P434> ?var7 ; a <http://www.wikidata.org/entity/Q215380> }
0.125	SELECT * WHERE { ?var1 a <http://www.wikidata.org/entity/Q215380> }
0.125	SELECT * WHERE { ?var1 <http://www.wikidata.org/prop/direct/P434> ?var7 ; a <http://www.wikidata.org/entity/Q215380> }
0.125	SELECT * WHERE { ?var1 <http://www.wikidata.org/prop/direct/P856> ?var3 ; a <http://www.wikidata.org/entity/Q215380> }
0.125	SELECT * WHERE { ?var1 <http://www.wikidata.org/prop/direct/P856> ?var3 ; <http://www.wikidata.org/prop/direct/P434> ?var7 ; a <http://www.wikidata.org/entity/Q215380> }
0.125	SELECT * WHERE { ?var1 a <http://www.wikidata.org/entity/Q215380> }
0.125	SELECT * WHERE { ?var1 <http://www.wikidata.org/prop/direct/P434> ?var7 ; a <http://www.wikidata.org/entity/Q215380> }
0.125	SELECT * WHERE { ?var1 <http://www.wikidata.org/prop/direct/P856> ?var3 ; a <http://www.wikidata.org/entity/Q215380> }
0.125	SELECT * WHERE { ?var1 <http://www.wikidata.org/prop/direct/P856> ?var3 ; <http://www.wikidata.org/prop/direct/P434> ?var7 ; a <http://www.wikidata.org/entity/Q215380> }
2.0	SELECT * WHERE { ?var3 a <http://www.wikidata.org/entity/Q215380> }
2.083333333333333	SELECT * WHERE { ?var1 <http://www.wikidata.org/prop/direct/P577> ?var2 ; a <http://www.wikidata.org/entity/Q482994> }
0.5	SELECT * WHERE { ?var4 a <http://www.wikidata.org/entity/Q43229> }
0.125	SELECT * WHERE { ?var1 a <http://www.wikidata.org/entity/Q215380> }
0.125	SELECT * WHERE { ?var1 <http://www.wikidata.org/prop/direct/P434> ?var7 ; a <http://www.wikidata.org/entity/Q215380> }
0.125	SELECT * WHERE { ?var1 <http://www.wikidata.org/prop/direct/P856> ?var3 ; a <http://www.wikidata.org/entity/Q215380> }
0.125	SELECT * WHERE { ?var1 <http://www.wikidata.org/prop/direct/P856> ?var3 ; <http://www.wikidata.org/prop/direct/P434> ?var7 ; a <http://www.wikidata.org/entity/Q215380> }
0.125	SELECT * WHERE { ?var1 a <http://www.wikidata.org/entity/Q215380> }
0.125	SELECT * WHERE { ?var1 <http://www.wikidata.org/prop/direct/P434> ?var7 ; a <http://www.wikidata.org/entity/Q215380> }
0.125	SELECT * WHERE { ?var1 <http://www.wikidata.org/prop/direct/P856> ?var3 ; a <http://www.wikidata.org/entity/Q215380> }
0.125	SELECT * WHERE { ?var1 <http://www.wikidata.org/prop/direct/P856> ?var3 ; <http://www.wikidata.org/prop/direct/P434> ?var7 ; a <http://www.wikidata.org/entity/Q215380> }
0.125	SELECT * WHERE { ?var1 a <http://www.wikidata.org/entity/Q215380> }
0.125	SELECT * WHERE { ?var1 <http://www.wikidata.org/prop/direct/P434> ?var7 ; a <http://www.wikidata.org/entity/Q215380> }
0.125	SELECT * WHERE { ?var1 <http://www.wikidata.org/prop/direct/P856> ?var3 ; a <http://www.wikidata.org/entity/Q215380> }
0.125	SELECT * WHERE { ?var1 <http://www.wikidata.org/prop/direct/P856> ?var3 ; <http://www.wikidata.org/prop/direct/P434> ?var7 ; a <http://www.wikidata.org/entity/Q215380> }
0.125	SELECT * WHERE { ?var1 a <http://www.wikidata.org/entity/Q215380> }
0.125	SELECT * WHERE { ?var1 <http://www.wikidata.org/prop/direct/P434> ?var7 ; a <http://www.wikidata.org/entity/Q215380> }
0.125	SELECT * WHERE { ?var1 <http://www.wikidata.org/prop/direct/P856> ?var3 ; a <http://www.wikidata.org/entity/Q215380> }
0.125	SELECT * WHERE { ?var1 <http://www.wikidata.org/prop/direct/P856> ?var3 ; <http://www.wikidata.org/prop/direct/P434> ?var7 ; a <http://www.wikidata.org/entity/Q215380> }
0.125	SELECT * WHERE { ?var1 a <http://www.wikidata.org/entity/Q215380> }
0.125	SELECT * WHERE { ?var1 <http://www.wikidata.org/prop/direct/P434> ?var7 ; a <http://www.wikidata.org/entity/Q215380> }
0.125	SELECT * WHERE { ?var1 <http://www.wikidata.org/prop/direct/P856> ?var3 ; a <http://www.wikidata.org/entity/Q215380> }
0.125	SELECT * WHERE { ?var1 <http://www.wikidata.org/prop/direct/P856> ?var3 ; <http://www.wikidata.org/prop/direct/P434> ?var7 ; a <http://www.wikidata.org/entity/Q215380> }
0.125	SELECT * WHERE { ?var1 a <http://www.wikidata.org/entity/Q215380> }
0.125	SELECT * WHERE { ?var1 <http://www.wikidata.org/prop/direct/P434> ?var7 ; a <http://www.wikidata.org/entity/Q215380> }
0.125	SELECT * WHERE { ?var1 <http://www.wikidata.org/prop/direct/P856> ?var3 ; a <http://www.wikidata.org/entity/Q215380> }
0.125	SELECT * WHERE { ?var1 <http://www.wikidata.org/prop/direct/P856> ?var3 ; <http://www.wikidata.org/prop/direct/P434> ?var7 ; a <http://www.wikidata.org/entity/Q215380> }
0.125	SELECT * WHERE { ?var1 a <http://www.wikidata.org/entity/Q215380> }
0.125	SELECT * WHERE { ?var1 <http://www.wikidata.org/prop/direct/P434> ?var7 ; a <http://www.wikidata.org/entity/Q215380> }
0.125	SELECT * WHERE { ?var1 <http://www.wikidata.org/prop/direct/P856> ?var3 ; a <http://www.wikidata.org/entity/Q215380> }
0.125	SELECT * WHERE { ?var1 <http://www.wikidata.org/prop/direct/P856> ?var3 ; <http://www.wikidata.org/prop/direct/P434> ?var7 ; a <http://www.wikidata.org/entity/Q215380> }
1.0	SELECT * WHERE { ?var1 a <http://www.wikidata.org/entity/Q5741069> }
1.0	SELECT * WHERE { ?var1 a <http://www.wikidata.org/entity/Q215380> }
0.125	SELECT * WHERE { ?var1 a <http://www.wikidata.org/entity/Q215380> }
0.125	SELECT * WHERE { ?var1 <http://www.wikidata.org/prop/direct/P434> ?var7 ; a <http://www.wikidata.org/entity/Q215380> }
0.125	SELECT * WHERE { ?var1 <http://www.wikidata.org/prop/direct/P856> ?var3 ; a <http://www.wikidata.org/entity/Q215380> }
0.125	SELECT * WHERE { ?var1 <http://www.wikidata.org/prop/direct/P856> ?var3 ; <http://www.wikidata.org/prop/direct/P434> ?var7 ; a <http://www.wikidata.org/entity/Q215380> }
0.375	SELECT * WHERE { ?var1 a <http://www.wikidata.org/entity/Q215380> }
0.375	SELECT * WHERE { ?var1 <http://www.wikidata.org/prop/direct/P434> ?var7 ; a <http://www.wikidata.org/entity/Q215380> }
0.375	SELECT * WHERE { ?var1 <http://www.wikidata.org/prop/direct/P856> ?var3 ; a <http://www.wikidata.org/entity/Q215380> }
0.375	SELECT * WHERE { ?var1 <http://www.wikidata.org/prop/direct/P856> ?var3 ; <http://www.wikidata.org/prop/direct/P434> ?var7 ; a <http://www.wikidata.org/entity/Q215380> }
0.375	SELECT * WHERE { ?var1 a <http://www.wikidata.org/entity/Q215380> }
0.375	SELECT * WHERE { ?var1 <http://www.wikidata.org/prop/direct/P434> ?var7 ; a <http://www.wikidata.org/entity/Q215380> }
0.375	SELECT * WHERE { ?var1 <http://www.wikidata.org/prop/direct/P856> ?var3 ; a <http://www.wikidata.org/entity/Q215380> }
0.375	SELECT * WHERE { ?var1 <http://www.wikidata.org/prop/direct/P856> ?var3 ; <http://www.wikidata.org/prop/direct/P434> ?var7 ; a <http://www.wikidata.org/entity/Q215380> }
0.125	SELECT * WHERE { ?var1 a <http://www.wikidata.org/entity/Q215380> }
0.125	SELECT * WHERE { ?var1 <http://www.wikidata.org/prop/direct/P434> ?var7 ; a <http://www.wikidata.org/entity/Q215380> }
0.125	SELECT * WHERE { ?var1 <http://www.wikidata.org/prop/direct/P856> ?var3 ; a <http://www.wikidata.org/entity/Q215380> }
0.125	SELECT * WHERE { ?var1 <http://www.wikidata.org/prop/direct/P856> ?var3 ; <http://www.wikidata.org/prop/direct/P434> ?var7 ; a <http://www.wikidata.org/entity/Q215380> }
0.125	SELECT * WHERE { ?var1 <http://www.wikidata.org/prop/direct/P434> ?var7 ; a <http://www.wikidata.org/entity/Q215380> }
0.125	SELECT * WHERE { ?var1 <http://www.wikidata.org/prop/direct/P856> ?var3 ; <http://www.wikidata.org/prop/direct/P434> ?var7 ; a <http://www.wikidata.org/entity/Q215380> }
0.375	SELECT * WHERE { ?var1 a <http://www.wikidata.org/entity/Q215380> }
0.375	SELECT * WHERE { ?var1 <http://www.wikidata.org/prop/direct/P434> ?var7 ; a <http://www.wikidata.org/entity/Q215380> }
0.375	SELECT * WHERE { ?var1 <http://www.wikidata.org/prop/direct/P856> ?var3 ; a <http://www.wikidata.org/entity/Q215380> }
0.375	SELECT * WHERE { ?var1 <http://www.wikidata.org/prop/direct/P856> ?var3 ; <http://www.wikidata.org/prop/direct/P434> ?var7 ; a <http://www.wikidata.org/entity/Q215380> }
0.125	SELECT * WHERE { ?var1 a <http://www.wikidata.org/entity/Q215380> }
0.125	SELECT * WHERE { ?var1 <http://www.wikidata.org/prop/direct/P434> ?var7 ; a <http://www.wikidata.org/entity/Q215380> }
0.125	SELECT * WHERE { ?var1 <http://www.wikidata.org/prop/direct/P856> ?var3 ; a <http://www.wikidata.org/entity/Q215380> }
0.125	SELECT * WHERE { ?var1 <http://www.wikidata.org/prop/direct/P856> ?var3 ; <http://www.wikidata.org/prop/direct/P434> ?var7 ; a <http://www.wikidata.org/entity/Q215380> }
0.125	SELECT * WHERE { ?var1 a <http://www.wikidata.org/entity/Q215380> }
0.125	SELECT * WHERE { ?var1 <http://www.wikidata.org/prop/direct/P434> ?var7 ; a <http://www.wikidata.org/entity/Q215380> }
0.125	SELECT * WHERE { ?var1 <http://www.wikidata.org/prop/direct/P856> ?var3 ; a <http://www.wikidata.org/entity/Q215380> }
0.125	SELECT * WHERE { ?var1 <http://www.wikidata.org/prop/direct/P856> ?var3 ; <http://www.wikidata.org/prop/direct/P434> ?var7 ; a <http://www.wikidata.org/entity/Q215380> }
1.0	SELECT * WHERE { ?var3 a <http://www.wikidata.org/entity/Q36834> }
2.0	SELECT * WHERE { ?var3 a <http://www.wikidata.org/entity/Q483501> }
1.0	SELECT * WHERE { ?var2 a <http://www.wikidata.org/entity/Q483501> }
1.0	SELECT * WHERE { ?var2 a <http://www.wikidata.org/entity/Q5741069> }
